{
	"experiment_id": "halfcheetah",
	"parallel_workers_n": 16,
	"environment": "HalfCheetahLabeledBulletTerrainEnv-v0",
	"policy_optimization_timesteps": 1e6,
	"policy_optimization_hyperparameters": {
		"policy": "MlpPolicy",
		"learning_rate": 7.3e-4,
		"buffer_size": 300000,
		"batch_size": 256,
		"ent_coef": "auto",
		"gamma": 0.98,
		"tau": 0.02,
		"train_freq": 8,
		"gradient_steps": 8,
		"learning_starts": 10000,
		"use_sde": true,
		"policy_kwargs": "dict(log_std_init=-3, net_arch=[400, 300])"
	},
	"safety_rollouts_n": 20,
	"max_rollout_len": 1000,
	"horizon_len": 480,
	"max_trajectory_optimization_rollouts": 10000,
	"state_perturbation_size": 0.5,
	"transition_policies_training_tasks": 100,
	"transition_training_timesteps": 10000,
	"max_receding_horizon_rollouts": 50000,
	"trajectory_optimization_sigma": 0.3,
	"trajectory_optimization_resample_factor": 5.0
}
