{
	"skip_train_plots": true,
	"experiment_id": "halfcheetah",
	"parallel_workers_n": 40,
	"environment": "HalfCheetahLabeledBulletTerrainEnv-v0",
	"policy_optimization_timesteps": 0,
	"monolithic_policy_optimization_timesteps": 1e7,
	"policy_optimization_workers": 1,
	"policy_optimization_hyperparameters": {
		"policy": "MlpPolicy",
		"batch_size": 128,
		"n_steps": 512,
		"gamma": 0.99,
		"gae_lambda": 0.9,
		"n_epochs": 20,
		"ent_coef": 0.0,
		"sde_sample_freq": 4,
		"max_grad_norm": 0.5,
		"vf_coef": 0.5,
		"learning_rate": 3e-5,
		"use_sde": true,
		"clip_range": 0.4,
		"policy_kwargs": "dict(log_std_init=-2, ortho_init=False, activation_fn=nn.ReLU, net_arch=[dict(pi=[256, 256], vf=[256, 256])])"
	},
	"safety_rollouts_n": 20,
	"max_rollout_len": 1000,
	"horizon_len": 60,
	"finish_policy_timesteps": 240,
	"state_perturbation_size": 0.5,
	"transition_policies_training_tasks": 100,
	"transition_training_timesteps": 1,
	"trajectory_optimization_rollouts": 256,
	"trajectory_optimization_sigma": 0.1,
	"trajectory_optimization_control_interval": 4
}
